<?xml version="1.0" encoding="UTF-8"?>
<Project>
   <description></description>
   <name>firstpracrepo</name>
   <tag></tag>
   <UUID>c9899ce2-477b-42cb-8d3e-9df6aa9669fd</UUID>
   <migratedVersion>5.9.0</migratedVersion>
   <pageLoadTimeout>0</pageLoadTimeout>
   <sourceContent>
      <sourceFolderList>
         <sourceFolderConfiguration>
            <url>Include/scripts/groovy</url>
         </sourceFolderConfiguration>
      </sourceFolderList>
      <systemFolderList>
         <systemFolderConfiguration>
            <url>Include/scripts/groovy</url>
         </systemFolderConfiguration>
         <systemFolderConfiguration>
            <url>Include/features</url>
         </systemFolderConfiguration>
         <systemFolderConfiguration>
            <url>Include/config</url>
         </systemFolderConfiguration>
      </systemFolderList>
   </sourceContent>
   <type>GENERIC</type>
</Project>
